{
  "hash": "0647f3ba55c107cb5c06400db2f0665c",
  "result": {
    "markdown": "---\ntitle: \"Introduction\"\nauthor: \"Elisabeth Morand et Bénédicte Garnier\"\nformat: \n  revealjs:\n     css: [\"default\", \"assets/theme_diapo.css\", \"assets/les-fonts.css\"]\n     title-slide-attributes:\n      data-background-image: images/pelotes_titre.jpeg\n      data-background-size: contain\n      data-background-opacity: \"0.5\"\n      data-background-color: \"#ffffff\"\n---\n\n::: {.cell}\n::: {.cell-output-display}\n\n:::\n:::\n\n::: {.cell}\n::: {.cell-output-display}\n\n:::\n:::\n\n\n\n::: {.cell}\n\n:::\n\n\n## A vous de jouer{ background-color=#447099}\n\n1.  On ouvre R studio\n2.  On crée un nouveau fichier quarto\n3.  On voit ce que ça donne\n\n##  {.middle .center}\n\n::: {.r-fit-text}\n**On ouvre Rstudio**\n:::\n\n\n\n\n\n\n##  {.middle .center background-image=\"images/creation_fichier.jpg\" background-size=\"contain\"}\n\n##  {.middle .center background-image=\"images/doc_quarto_ini_01.jpg\" background-size=\"contain\"}\n\n##  {.middle .center background-image=\"images/doc_quarto_ini_02.jpg\" background-size=\"contain\"}\n\n##  {.middle .center background-image=\"images/doc_quarto_ini_03.jpg\" background-size=\"contain\"}\n\n##  {.middle .center background-image=\"images/doc_quarto_ini_04.jpg\" background-size=\"contain\"}\n\n## Mon premier fichier quarto\n\n![](images/render_00.jpg){fig-align=\"center\"}\n\n\n## ...et alors\n\nObjectif : avoir en un seul document \n- le document, \n- la mise en page ,\n- le code nécessaire aux analyses avec son résultat\n\n## Aspect pratique\n\n1.  Créer un dossier pour l'ensemble des fichiers qui vont être créés au cours de cette séance de formation\n\n2.  On télécharge le projet (fourni [ici]())\n\n3.  On fait une extraction (\"dézip\")\n\n4. On ouvre le projet\n\n\n## A vous de jouer{ background-color=#447099}\n\n1. On ouvre e meilleur article du monde, article.qmd\n    - par file \\> open\n    - ou par l'interface graphique\n    \n2. On utilise le bouton render\n\n\n## Au programme ce jour\n\nOn va : \n- modifier l'en-tête\n- modifier la forme du contenu\n- ajouter du contenu : image , tableau , bibliographie\n-  ajouter du code et des résultats\n\n##  {.middle .center}\n\n| Horaire       | Contenu                                                             |\n|:-------------------|:---------------------------------------------------|\n| 09:30 - 10:00 | Introduction : quarto                                               |\n| 10:00 - 10:15 | *Exercice pratique* <i class=\"fa-solid fa-pen-to-square\"></i>       |\n| 10:15 - 10:45 | Mettre des graphiques ; des tableaux, une bibliographie {{< fa thumbs-up >}} |\n\n| 10:45 - 11:00 | *Exercice pratique* <i class=\"fa-solid fa-pen-to-square\"></i>       |\n| 11:00 - 11:10 | *Pause* ☕                                       |\n| 11:10 - 12:00 | Mettre du code                                  |\n| 12:00 - 12:15 | Et aussi ..;                                |\n| 12:15 - 12:30 | en résumé : questions, documents..                                  |\n\n------------------------------------------------------------------------\n\n",
    "supporting": [],
    "filters": [
      "rmarkdown/pagebreak.lua"
    ],
    "includes": {
      "include-in-header": [
        "<link href=\"../site_libs/tile-view-0.2.6/tile-view.css\" rel=\"stylesheet\" />\r\n<script src=\"../site_libs/tile-view-0.2.6/tile-view.js\"></script>\r\n<link href=\"../site_libs/animate.css-3.7.2/animate.xaringan.css\" rel=\"stylesheet\" />\r\n<script src=\"../site_libs/fabric-4.3.1/fabric.min.js\"></script>\r\n<link href=\"../site_libs/xaringanExtra-scribble-0.0.1/scribble.css\" rel=\"stylesheet\" />\r\n<script src=\"../site_libs/xaringanExtra-scribble-0.0.1/scribble.js\"></script>\r\n<script>document.addEventListener('DOMContentLoaded', function() { window.xeScribble = new Scribble({\"pen_color\":[\"#FF0000\"],\"pen_size\":3,\"eraser_size\":30,\"palette\":[]}) })</script>\r\n<link href=\"../site_libs/panelset-0.2.6/panelset.css\" rel=\"stylesheet\" />\r\n<script src=\"../site_libs/panelset-0.2.6/panelset.js\"></script>\r\n"
      ],
      "include-after-body": [
        "\r\n<script>\r\n  // htmlwidgets need to know to resize themselves when slides are shown/hidden.\r\n  // Fire the \"slideenter\" event (handled by htmlwidgets.js) when the current\r\n  // slide changes (different for each slide format).\r\n  (function () {\r\n    // dispatch for htmlwidgets\r\n    function fireSlideEnter() {\r\n      const event = window.document.createEvent(\"Event\");\r\n      event.initEvent(\"slideenter\", true, true);\r\n      window.document.dispatchEvent(event);\r\n    }\r\n\r\n    function fireSlideChanged(previousSlide, currentSlide) {\r\n      fireSlideEnter();\r\n\r\n      // dispatch for shiny\r\n      if (window.jQuery) {\r\n        if (previousSlide) {\r\n          window.jQuery(previousSlide).trigger(\"hidden\");\r\n        }\r\n        if (currentSlide) {\r\n          window.jQuery(currentSlide).trigger(\"shown\");\r\n        }\r\n      }\r\n    }\r\n\r\n    // hookup for slidy\r\n    if (window.w3c_slidy) {\r\n      window.w3c_slidy.add_observer(function (slide_num) {\r\n        // slide_num starts at position 1\r\n        fireSlideChanged(null, w3c_slidy.slides[slide_num - 1]);\r\n      });\r\n    }\r\n\r\n  })();\r\n</script>\r\n\r\n"
      ]
    },
    "engineDependencies": {},
    "preserve": {},
    "postProcess": true
  }
}